# Integration parameters:
#	qmax	10
#	Orientation Method	Monte Carlo (Mersenne Twister)
#	Orientation Iterations	10000000
#	Convergence	0.001
# 
# Program revision: 3, 2, 0, 0
# //////////////////////////////////////
# Multiple-Domain Composite Model
## //////////////////////////////////////
## Domain Model
## qMax = 10
## Grid size = 80
### //////////////////////////////////////
### PDB file: C:\Delete\Examples for Devora\PDB vs Amp\2om3_State1.pdb
### The atoms were centered to the center of mass
### Position (0,0,0)
### Rotation (0,0,0)
### N^3; N = 80
### qMax = 10
### Grid step size = 0.25
### Solvent ED amplitude subtracted: 333
### Solvent radius: 0.14
### Solvent ED step size: 0.05
### Outer Solvent ED: 0
### Solvent radius type: Dummy atoms
### Scale: 1

0	1808357.3
0.0125	1807933.1
0.025	1806665.2
0.0375	1804562.1
0.05	1801634.1
0.0625	1797893
0.075	1793351.4
0.0875	1788022.8
0.1	1781921.1
0.1125	1775060.1
0.125	1767453.8
0.1375	1759116
0.15	1750059.8
0.1625	1740298.1
0.175	1729843.2
0.1875	1718706.7
0.2	1706899.7
0.2125	1694432.8
0.225	1681316.2
0.2375	1667559.5
0.25	1653172.4
0.2625	1640216.4
0.275	1625655.3
0.2875	1610362.8
0.3	1594380.8
0.3125	1577750.9
0.325	1560515
0.3375	1542714.3
0.35	1524389.8
0.3625	1505582
0.375	1486330.7
0.3875	1466675.1
0.4	1446653.5
0.4125	1426303.6
0.425	1405661.9
0.4375	1384764.1
0.45	1363644.6
0.4625	1342337
0.475	1320873.6
0.4875	1299285.3
0.5	1277602.1
0.5125	1255911.3
0.525	1235103.9
0.5375	1214110.5
0.55	1192970.8
0.5625	1171723.4
0.575	1150405.6
0.5875	1129053.2
0.6	1107700.9
0.6125	1086381.8
0.625	1065127.6
0.6375	1043968.5
0.65	1022933
0.6625	1002048.4
0.675	981340.05
0.6875	960831.86
0.7	940546.12
0.7125	920503.47
0.725	900722.96
0.7375	881221.99
0.75	862016.38
0.7625	841399.42
0.775	823131.26
0.7875	805079.54
0.8	787261.89
0.8125	769694.58
0.825	752392.53
0.8375	735369.27
0.85	718637
0.8625	702206.53
0.875	686087.35
0.8875	670287.61
0.9	654814.13
0.9125	639672.43
0.925	624866.79
0.9375	610400.22
0.95	596274.51
0.9625	582490.31
0.975	569047.11
0.9875	555943.3
1	543176.26
1.0125	529041.19
1.025	516996.85
1.0375	505238.17
1.05	493763.44
1.0625	482570.43
1.075	471656.46
1.0875	461018.33
1.1	450652.4
1.1125	440554.59
1.125	430720.37
1.1375	421144.83
1.15	411822.64
1.1625	402748.12
1.175	393915.25
1.1875	385317.68
1.2	376948.76
1.2125	368801.58
1.225	360868.99
1.2375	353143.6
1.25	345617.89
1.2625	338396.35
1.275	331297.75
1.2875	324369.94
1.3	317607.03
1.3125	311003.35
1.325	304553.44
1.3375	298251.99
1.35	292093.87
1.3625	286074.12
1.375	280187.91
1.3875	274430.57
1.4	268797.57
1.4125	263284.51
1.425	257887.11
1.4375	252601.22
1.45	247422.79
1.4625	242347.91
1.475	237372.74
1.4875	232493.61
1.5	227706.89
1.5125	225189.88
1.525	220677.19
1.5375	216237.72
1.55	211869.41
1.5625	207570.45
1.575	203339.25
1.5875	199174.43
1.6	195074.79
1.6125	191039.29
1.625	187067
1.6375	183157.13
1.65	179308.96
1.6625	175521.86
1.675	171795.25
1.6875	168128.6
1.7	164521.41
1.7125	160973.19
1.725	157483.47
1.7375	154051.76
1.75	150677.59
1.7625	147205.71
1.775	144060.15
1.7875	140957.69
1.8	137898.64
1.8125	134883.4
1.825	131912.4
1.8375	128986.09
1.85	126104.93
1.8625	123269.36
1.875	120479.82
1.8875	117736.69
1.9	115040.33
1.9125	112391.01
1.925	109788.97
1.9375	107234.37
1.95	104727.29
1.9625	102267.74
1.975	99855.651
1.9875	97490.865
2	95173.153
2.0125	93015.693
2.025	90852.526
2.0375	88726.918
2.05	86639.221
2.0625	84589.777
2.075	82578.902
2.0875	80606.883
2.1	78673.971
2.1125	76780.371
2.125	74926.241
2.1375	73111.687
2.15	71336.758
2.1625	69601.445
2.175	67905.678
2.1875	66249.325
2.2	64632.195
2.2125	63054.033
2.225	61514.528
2.2375	60013.311
2.25	58549.961
2.2625	57162.907
2.275	55827.399
2.2875	54523.01
2.3	53249.942
2.3125	52008.383
2.325	50798.495
2.3375	49620.411
2.35	48474.225
2.3625	47359.994
2.375	46277.725
2.3875	45227.376
2.4	44208.854
2.4125	43222.008
2.425	42266.627
2.4375	41342.444
2.45	40449.128
2.4625	39586.288
2.475	38753.473
2.4875	37950.171
2.5	37175.811
2.5125	36380.511
2.525	35702.348
2.5375	35049.818
2.55	34422.927
2.5625	33821.633
2.575	33245.84
2.5875	32695.389
2.6	32170.06
2.6125	31669.56
2.625	31193.527
2.6375	30741.521
2.65	30313.028
2.6625	29907.453
2.675	29524.122
2.6875	29162.285
2.7	28821.111
2.7125	28499.695
2.725	28197.055
2.7375	27912.141
2.75	27643.833
2.7625	27448.892
2.775	27260.686
2.7875	27087.529
2.8	26928.937
2.8125	26784.379
2.825	26653.279
2.8375	26535.009
2.85	26428.894
2.8625	26334.203
2.875	26250.159
2.8875	26175.929
2.9	26110.633
2.9125	26053.342
2.925	26003.079
2.9375	25958.825
2.95	25919.52
2.9625	25884.068
2.975	25851.339
2.9875	25820.178
3	25789.408
3.0125	25774.83
3.025	25799.677
3.0375	25824.002
3.05	25847.467
3.0625	25869.742
3.075	25890.5
3.0875	25909.414
3.1	25926.159
3.1125	25940.405
3.125	25951.824
3.1375	25960.082
3.15	25964.842
3.1625	25965.764
3.175	25962.505
3.1875	25954.722
3.2	25942.068
3.2125	25924.198
3.225	25900.769
3.2375	25871.442
3.25	25835.885
3.2625	25860.261
3.275	25866.57
3.2875	25865.29
3.3	25856.943
3.3125	25842.06
3.325	25821.178
3.3375	25794.834
3.35	25763.56
3.3625	25727.879
3.375	25688.301
3.3875	25645.32
3.4	25599.407
3.4125	25551.011
3.425	25500.554
3.4375	25448.432
3.45	25395.007
3.4625	25340.614
3.475	25285.55
3.4875	25230.082
3.5	25174.441
3.5125	25250.566
3.525	25239.995
3.5375	25227.705
3.55	25214.516
3.5625	25201.209
3.575	25188.52
3.5875	25177.134
3.6	25167.679
3.6125	25160.727
3.625	25156.784
3.6375	25156.291
3.65	25159.621
3.6625	25167.074
3.675	25178.881
3.6875	25195.197
3.7	25216.104
3.7125	25241.61
3.725	25271.649
3.7375	25306.083
3.75	25344.705
3.7625	25352.773
3.775	25436.67
3.7875	25523.678
3.8	25614.009
3.8125	25707.819
3.825	25805.205
3.8375	25906.204
3.85	26010.793
3.8625	26118.885
3.875	26230.332
3.8875	26344.922
3.9	26462.382
3.9125	26582.376
3.925	26704.509
3.9375	26828.328
3.95	26953.322
3.9625	27078.928
3.975	27204.531
3.9875	27329.468
4	27453.036
4.0125	27730.305
4.025	27895.149
4.0375	28058.158
4.05	28219.103
4.0625	28377.736
4.075	28533.789
4.0875	28686.979
4.1	28837.002
4.1125	28983.533
4.125	29126.231
4.1375	29264.735
4.15	29398.666
4.1625	29527.628
4.175	29651.21
4.1875	29768.988
4.2	29880.523
4.2125	29985.367
4.225	30083.062
4.2375	30173.146
4.25	30255.153
4.2625	30376.955
4.275	30490.833
4.2875	30596.257
4.3	30693.301
4.3125	30782.049
4.325	30862.588
4.3375	30935.009
4.35	30999.403
4.3625	31055.86
4.375	31104.469
4.3875	31145.313
4.4	31178.472
4.4125	31204.019
4.425	31222.02
4.4375	31232.533
4.45	31235.61
4.4625	31231.294
4.475	31219.62
4.4875	31200.618
4.5	31174.309
4.5125	31187.028
4.525	31188.638
4.5375	31182.246
4.55	31168.312
4.5625	31147.285
4.575	31119.6
4.5875	31085.676
4.6	31045.913
4.6125	31000.686
4.625	30950.349
4.6375	30895.229
4.65	30835.626
4.6625	30771.811
4.675	30704.027
4.6875	30632.484
4.7	30557.363
4.7125	30478.815
4.725	30396.959
4.7375	30311.886
4.75	30223.655
4.7625	30125.449
4.775	30071.179
4.7875	30012.987
4.8	29951.232
4.8125	29886.248
4.825	29818.336
4.8375	29747.767
4.85	29674.776
4.8625	29599.566
4.875	29522.306
4.8875	29443.126
4.9	29362.123
4.9125	29279.358
4.925	29194.857
4.9375	29108.611
4.95	29020.577
4.9625	28930.68
4.975	28838.816
4.9875	28744.849
5	28648.617
5.0125	28729.472
5.025	28661.841
5.0375	28591.596
5.05	28518.886
5.0625	28443.84
5.075	28366.568
5.0875	28287.159
5.1	28205.68
5.1125	28122.176
5.125	28036.671
5.1375	27949.167
5.15	27859.644
5.1625	27768.064
5.175	27674.364
5.1875	27578.467
5.2	27480.273
5.2125	27379.669
5.225	27276.525
5.2375	27170.697
5.25	27062.03
5.2625	26980.88
5.275	26900.354
5.2875	26816.808
5.3	26730.436
5.3125	26641.422
5.325	26549.939
5.3375	26456.148
5.35	26360.199
5.3625	26262.228
5.375	26162.356
5.3875	26060.69
5.4	25957.321
5.4125	25852.324
5.425	25745.759
5.4375	25637.671
5.45	25528.088
5.4625	25417.025
5.475	25304.481
5.4875	25190.441
5.5	25074.88
5.5125	24947.685
5.525	24857.817
5.5375	24766.356
5.55	24673.597
5.5625	24579.82
5.575	24485.284
5.5875	24390.23
5.6	24294.876
5.6125	24199.417
5.625	24104.024
5.6375	24008.841
5.65	23913.988
5.6625	23819.558
5.675	23725.618
5.6875	23632.205
5.7	23539.333
5.7125	23446.989
5.725	23355.133
5.7375	23263.7
5.75	23172.602
5.7625	22937.112
5.775	22871.77
5.7875	22806.654
5.8	22741.958
5.8125	22677.85
5.825	22614.475
5.8375	22551.949
5.85	22490.359
5.8625	22429.765
5.875	22370.196
5.8875	22311.653
5.9	22254.107
5.9125	22197.497
5.925	22141.737
5.9375	22086.71
5.95	22032.27
5.9625	21978.246
5.975	21924.441
5.9875	21870.635
6	21816.582
6.0125	21873.23
6.025	21843.649
6.0375	21813.762
6.05	21783.606
6.0625	21753.202
6.075	21722.552
6.0875	21691.64
6.1	21660.431
6.1125	21628.869
6.125	21596.882
6.1375	21564.374
6.15	21531.234
6.1625	21497.329
6.175	21462.51
6.1875	21426.609
6.2	21389.442
6.2125	21350.809
6.225	21310.496
6.2375	21268.275
6.25	21223.907
6.2625	21217.071
6.275	21194.734
6.2875	21170.294
6.3	21143.833
6.3125	21115.427
6.325	21085.142
6.3375	21053.034
6.35	21019.148
6.3625	20983.515
6.375	20946.158
6.3875	20907.082
6.4	20866.284
6.4125	20823.743
6.425	20779.428
6.4375	20733.292
6.45	20685.278
6.4625	20635.313
6.475	20583.316
6.4875	20529.19
6.5	20472.83
6.5125	20471.005
6.525	20435.65
6.5375	20397.837
6.55	20357.765
6.5625	20315.624
6.575	20271.591
6.5875	20225.83
6.6	20178.487
6.6125	20129.695
6.625	20079.567
6.6375	20028.2
6.65	19975.672
6.6625	19922.041
6.675	19867.348
6.6875	19811.613
6.7	19754.838
6.7125	19697.005
6.725	19638.078
6.7375	19578.005
6.75	19516.713
6.7625	19478.124
6.775	19442.08
6.7875	19404.5
6.8	19365.554
6.8125	19325.4
6.825	19284.173
6.8375	19241.995
6.85	19198.966
6.8625	19155.166
6.875	19110.657
6.8875	19065.478
6.9	19019.651
6.9125	18973.173
6.925	18926.026
6.9375	18878.168
6.95	18829.54
6.9625	18780.064
6.975	18729.644
6.9875	18678.169
7	18625.511
7.0125	18565.171
7.025	18532.697
7.0375	18498.837
7.05	18463.702
7.0625	18427.387
7.075	18389.977
7.0875	18351.544
7.1	18312.145
7.1125	18271.824
7.125	18230.611
7.1375	18188.522
7.15	18145.559
7.1625	18101.71
7.175	18056.95
7.1875	18011.239
7.2	17964.528
7.2125	17916.752
7.225	17867.839
7.2375	17817.705
7.25	17766.257
7.2625	17778.334
7.275	17745.811
7.2875	17711.736
7.3	17676.242
7.3125	17639.458
7.325	17601.503
7.3375	17562.487
7.35	17522.509
7.3625	17481.66
7.375	17440.018
7.3875	17397.648
7.4	17354.607
7.4125	17310.936
7.425	17266.666
7.4375	17221.816
7.45	17176.393
7.4625	17130.391
7.475	17083.795
7.4875	17036.577
7.5	16988.7
7.5125	16911.369
7.525	16883.254
7.5375	16854.322
7.55	16824.73
7.5625	16794.624
7.575	16764.138
7.5875	16733.391
7.6	16702.486
7.6125	16671.512
7.625	16640.542
7.6375	16609.631
7.65	16578.815
7.6625	16548.117
7.675	16517.539
7.6875	16487.067
7.7	16456.67
7.7125	16426.298
7.725	16395.888
7.7375	16365.36
7.75	16334.617
7.7625	16499.042
7.775	16487.077
7.7875	16474.89
7.8	16462.564
7.8125	16450.168
7.825	16437.754
7.8375	16425.356
7.85	16412.992
7.8625	16400.661
7.875	16388.345
7.8875	16376.007
7.9	16363.592
7.9125	16351.029
7.925	16338.227
7.9375	16325.08
7.95	16311.466
7.9625	16297.246
7.975	16282.268
7.9875	16266.367
8	16249.366
8.0125	16090.408
8.025	16092.166
8.0375	16092.925
8.05	16092.708
8.0625	16091.529
8.075	16089.389
8.0875	16086.28
8.1	16082.182
8.1125	16077.063
8.125	16070.882
8.1375	16063.583
8.15	16055.103
8.1625	16045.364
8.175	16034.282
8.1875	16021.76
8.2	16007.694
8.2125	15991.971
8.225	15974.471
8.2375	15955.068
8.25	15933.63
8.2625	15891.382
8.275	15887.518
8.2875	15881.765
8.3	15874.213
8.3125	15864.949
8.325	15854.05
8.3375	15841.589
8.35	15827.63
8.3625	15812.227
8.375	15795.429
8.3875	15777.273
8.4	15757.789
8.4125	15736.997
8.425	15714.908
8.4375	15691.524
8.45	15666.84
8.4625	15640.842
8.475	15613.508
8.4875	15584.809
8.5	15554.712
8.5125	15688.038
8.525	15674.923
8.5375	15660.514
8.55	15644.983
8.5625	15628.493
8.575	15611.195
8.5875	15593.229
8.6	15574.72
8.6125	15555.78
8.625	15536.509
8.6375	15516.989
8.65	15497.288
8.6625	15477.459
8.675	15457.541
8.6875	15437.555
8.7	15417.508
8.7125	15397.394
8.725	15377.191
8.7375	15356.863
8.75	15336.362
8.7625	15314.636
8.775	15313.675
8.7875	15312.715
8.8	15311.894
8.8125	15311.331
8.825	15311.13
8.8375	15311.376
8.85	15312.136
8.8625	15313.46
8.875	15315.374
8.8875	15317.89
8.9	15320.997
8.9125	15324.666
8.925	15328.848
8.9375	15333.477
8.95	15338.466
8.9625	15343.714
8.975	15349.099
8.9875	15354.487
9	15359.726
9.0125	15308.098
9.025	15334.101
9.0375	15360.382
9.05	15386.991
9.0625	15413.965
9.075	15441.323
9.0875	15469.066
9.1	15497.179
9.1125	15525.63
9.125	15554.369
9.1375	15583.328
9.15	15612.423
9.1625	15641.551
9.175	15670.594
9.1875	15699.418
9.2	15727.872
9.2125	15755.793
9.225	15783.003
9.2375	15809.312
9.25	15834.517
9.2625	15914.053
9.275	15958.388
9.2875	16002.014
9.3	16044.962
9.3125	16087.248
9.325	16128.877
9.3375	16169.843
9.35	16210.123
9.3625	16249.682
9.375	16288.473
9.3875	16326.433
9.4	16363.486
9.4125	16399.541
9.425	16434.497
9.4375	16468.238
9.45	16500.636
9.4625	16531.553
9.475	16560.838
9.4875	16588.334
9.5	16613.872
9.5125	16644.167
9.525	16690.762
9.5375	16735.884
9.55	16779.614
9.5625	16822.022
9.575	16863.165
9.5875	16903.085
9.6	16941.811
9.6125	16979.357
9.625	17015.722
9.6375	17050.89
9.65	17084.829
9.6625	17117.492
9.675	17148.819
9.6875	17178.732
9.7	17207.141
9.7125	17233.943
9.725	17259.019
9.7375	17282.242
9.75	17303.472
9.7625	17323.196
9.775	17367.526
9.7875	17410.227
9.8	17451.403
9.8125	17491.146
9.825	17529.531
9.8375	17566.617
9.85	17602.445
9.8625	17637.037
9.875	17670.397
9.8875	17702.514
9.9	17733.353
9.9125	17762.866
9.925	17790.984
9.9375	17817.62
9.95	17842.674
9.9625	17866.024
9.975	17887.538
9.9875	17907.065
10	17924.444
