# Integration parameters:
#	qmax	10
#	Orientation Method	Adaptive (VEGAS) Monte Carlo
#	Orientation Iterations	10000000
#	Convergence	0.001
# 
# Program revision: 3, 2, 0, 0
# //////////////////////////////////////
# Multiple-Domain Composite Model
## //////////////////////////////////////
## Domain Model
## qMax = 10
## Grid size = 250
### //////////////////////////////////////
### Geometric model	Helix
### Position (0,0,0)
### Rotation (0,0,0)
### Grid was used.
### N^3; N = 250
### qMax = 10
### Grid step size = 0.08
### Parameters:	Radius	E.D.	N/A
### Solvent:	0	333	0
### Layer 1:	0	350	2
### Layer 2:	1	400	1.5
### Scale	1
### Background	0.01
### N/A	8
### N/A	4
### N/A	6

0	9564290
0.0125	13237483
0.025	24193751
0.0375	44052904
0.05	72582185
0.0625	1.0514494e+008
0.075	1.3182828e+008
0.0875	1.4058037e+008
0.1	1.3464323e+008
0.1125	1.2217792e+008
0.125	1.0683208e+008
0.1375	91413801
0.15	79661927
0.1625	70433853
0.175	66599284
0.1875	64467028
0.2	63940182
0.2125	64220769
0.225	64767717
0.2375	64873725
0.25	60275905
0.2625	53387531
0.275	46177446
0.2875	38987611
0.3	32558938
0.3125	27556805
0.325	23683271
0.3375	20816811
0.35	18715593
0.3625	17040340
0.375	15831302
0.3875	14831863
0.4	13745295
0.4125	11914186
0.425	10014170
0.4375	8226098.6
0.45	6637400.5
0.4625	5336050.4
0.475	4325682.2
0.4875	3610735.1
0.5	3067583.5
0.5125	2625707.3
0.525	2265578.1
0.5375	1963139.8
0.55	1718681.2
0.5625	1500890.6
0.575	1293971
0.5875	1124051.4
0.6	983401.97
0.6125	877322.84
0.625	805605.56
0.6375	773335.5
0.65	776168.26
0.6625	809327.44
0.675	881814.56
0.6875	984133.14
0.7	1098704.5
0.7125	1214815.8
0.725	1299807.7
0.7375	1338443
0.75	1366343.5
0.7625	1398132.4
0.775	1435726
0.7875	1489345
0.8	1566747.9
0.8125	1733957.5
0.825	1913677.3
0.8375	2142962.9
0.85	2414832.1
0.8625	2674358.2
0.875	2902734.6
0.8875	3039699.2
0.9	3112253.2
0.9125	3135715.9
0.925	3187312.3
0.9375	3263402.6
0.95	3367016.8
0.9625	3531007
0.975	3793815.5
0.9875	4086118.5
1	4394352.7
1.0125	4723416.2
1.025	5032543.8
1.0375	5275799.2
1.05	5449379.2
1.0625	5578380.5
1.075	5656631.8
1.0875	5725413.9
1.1	5765458.2
1.1125	5787038
1.125	5821170.7
1.1375	5855477.5
1.15	5849070.6
1.1625	5806928.9
1.175	5730464.1
1.1875	5616957.6
1.2	5447065.2
1.2125	5223211.1
1.225	4981132.8
1.2375	4691752.4
1.25	4374961.1
1.2625	4059312.1
1.275	3744354.5
1.2875	3432560.6
1.3	3102949.8
1.3125	2786928.3
1.325	2478040.9
1.3375	2184214.9
1.35	1923650.3
1.3625	1672207.1
1.375	1425605.9
1.3875	1232180.8
1.4	1048766
1.4125	906466.49
1.425	788464.56
1.4375	699977.68
1.45	634489.68
1.4625	590984.32
1.475	567668.92
1.4875	567730.89
1.5	583715.34
1.5125	609906.47
1.525	641470.96
1.5375	679536.42
1.55	718819.59
1.5625	759773.32
1.575	797866.72
1.5875	829424.84
1.6	856775.99
1.6125	888933.91
1.625	913364.25
1.6375	929101.45
1.65	937841.96
1.6625	936686.55
1.675	927372.27
1.6875	909249.32
1.7	875138.93
1.7125	835263.47
1.725	788331.14
1.7375	740214.63
1.75	691352.68
1.7625	640474.47
1.775	595205.4
1.7875	550839.26
1.8	507510.11
1.8125	466883.83
1.825	428581.25
1.8375	393164.05
1.85	359762.47
1.8625	328910.94
1.875	299493.83
1.8875	276676.74
1.9	258669.56
1.9125	244075.72
1.925	237238.49
1.9375	237233.47
1.95	238995.6
1.9625	247044.96
1.975	259362.09
1.9875	273635.35
2	292364.88
2.0125	314894.75
2.025	339907.9
2.0375	368872.93
2.05	397445.63
2.0625	428698.23
2.075	460361.95
2.0875	494413.56
2.1	529750.91
2.1125	563202.12
2.125	595589.05
2.1375	625891.19
2.15	653013.16
2.1625	677216.43
2.175	700900.56
2.1875	720306.02
2.2	734301.39
2.2125	743022.94
2.225	746403.97
2.2375	743923.12
2.25	739013.79
2.2625	728525.12
2.275	713438.71
2.2875	692724.8
2.3	666946.07
2.3125	637578.72
2.325	605609.44
2.3375	572112.81
2.35	535783.8
2.3625	497139.03
2.375	457227.56
2.3875	418550.32
2.4	379344.91
2.4125	342647.4
2.425	306788.21
2.4375	274169.13
2.45	242918.64
2.4625	214551.93
2.475	190667.01
2.4875	169876.56
2.5	150899.48
2.5125	137010.42
2.525	124965.15
2.5375	116482.49
2.55	110391.95
2.5625	106595.77
2.575	105359.47
2.5875	105225.39
2.6	106387.9
2.6125	108594.15
2.625	111100.12
2.6375	113140.29
2.65	115372.99
2.6625	117376.04
2.675	118529.28
2.6875	118678.68
2.7	117752.9
2.7125	115684.88
2.725	113139.53
2.7375	109750.53
2.75	105059.57
2.7625	99425.394
2.775	93045.049
2.7875	86123.559
2.8	78738.965
2.8125	71728.499
2.825	64328.138
2.8375	57223.692
2.85	50388.871
2.8625	44008.621
2.875	38425.826
2.8875	33859.43
2.9	30048.181
2.9125	27080.252
2.925	25079.553
2.9375	24021.13
2.95	23737.856
2.9625	24367.424
2.975	26163.693
2.9875	28709.658
3	32063.811
3.0125	35977.768
3.025	40585.36
3.0375	45479.821
3.05	51085.458
3.0625	57255.45
3.075	63528.079
3.0875	70122.938
3.1	77013.302
3.1125	83419.228
3.125	90310.898
3.1375	97311.732
3.15	103935.79
3.1625	110433.35
3.175	116616.59
3.1875	122471.97
3.2	127445.08
3.2125	133221.61
3.225	138621.34
3.2375	143348.23
3.25	147555.72
3.2625	150973.16
3.275	153491.12
3.2875	155812.69
3.3	157163.09
3.3125	157622.07
3.325	157096.24
3.3375	155462.66
3.35	153268.44
3.3625	149909.09
3.375	146612.32
3.3875	142516.57
3.4	137341.2
3.4125	131945.66
3.425	125285.76
3.4375	118677.14
3.45	111905.46
3.4625	104418.97
3.475	96810.449
3.4875	88995.343
3.5	81383.593
3.5125	74128.829
3.525	67364.577
3.5375	60903.887
3.55	54995.936
3.5625	49617.979
3.575	44924.02
3.5875	40744.728
3.6	37424.565
3.6125	34786.716
3.625	32670.719
3.6375	31322.787
3.65	30521.696
3.6625	30146.883
3.675	30166.492
3.6875	30669.114
3.7	31547.481
3.7125	32506.804
3.725	33488.547
3.7375	34448.277
3.75	35212.337
3.7625	35838.017
3.775	36485.914
3.7875	36737.299
3.8	36607.814
3.8125	36156.132
3.825	35266.414
3.8375	34104.539
3.85	32910.457
3.8625	31164.407
3.875	29452.141
3.8875	27366.901
3.9	25211.092
3.9125	23074.29
3.925	20905.267
3.9375	18872.855
3.95	17188.361
3.9625	15657.953
3.975	14401.922
3.9875	13540.152
4	13095.126
4.0125	13216.848
4.025	13686.729
4.0375	14692.482
4.05	16185.645
4.0625	18113.829
4.075	20400.293
4.0875	23104.276
4.1	26448.077
4.1125	29867.829
4.125	33741.692
4.1375	37855.035
4.15	42107.097
4.1625	46574.064
4.175	51365.198
4.1875	56191.568
4.2	60894.261
4.2125	65625.209
4.225	70224.322
4.2375	74485.292
4.25	78995.571
4.2625	83372.67
4.275	87311.082
4.2875	91008.183
4.3	94319.744
4.3125	97081.925
4.325	99677.495
4.3375	102107.71
4.35	103988.67
4.3625	105248.42
4.375	106086.7
4.3875	106198.33
4.4	105509.92
4.4125	105042.63
4.425	103835.76
4.4375	102019.4
4.45	99504.524
4.4625	96537.843
4.475	93010.413
4.4875	88988.384
4.5	84895.337
4.5125	80363.183
4.525	75272.719
4.5375	70297.717
4.55	65006.617
4.5625	59755.196
4.575	54455.04
4.5875	49392.844
4.6	44310.971
4.6125	39514.859
4.625	34950.776
4.6375	30815.957
4.65	27198.092
4.6625	23762.782
4.675	21022.552
4.6875	18600.34
4.7	16698.232
4.7125	15266.024
4.725	14213.379
4.7375	13673.853
4.75	13481.643
4.7625	13539.643
4.775	13899.28
4.7875	14369.555
4.8	14854.833
4.8125	15612.286
4.825	16316.674
4.8375	16930.315
4.85	17430.309
4.8625	17755.684
4.875	17824.422
4.8875	17802.59
4.9	17553.001
4.9125	17044.847
4.925	16298.863
4.9375	15349.138
4.95	14251.728
4.9625	13053.202
4.975	11854.421
4.9875	10652.873
5	9435.0156
5.0125	8368.8245
5.025	7481.027
5.0375	6777.1831
5.05	6396.0961
5.0625	6378.089
5.075	6680.0514
5.0875	7380.0541
5.1	8609.8068
5.1125	10058.781
5.125	12035.105
5.1375	14523.209
5.15	17329.709
5.1625	20493.224
5.175	24087.836
5.1875	27828.727
5.2	31581.611
5.2125	35763.031
5.225	40125.863
5.2375	44450.418
5.25	48638.194
5.2625	52794.097
5.275	56614.444
5.2875	60564.499
5.3	64289.219
5.3125	67528.777
5.325	70479.114
5.3375	72920.622
5.35	74916.609
5.3625	76265.45
5.375	77725.467
5.3875	78580.335
5.4	79030.155
5.4125	78896.62
5.425	78289.616
5.4375	77287.462
5.45	76074.788
5.4625	74440.817
5.475	72507.554
5.4875	70203.109
5.5	67654.948
5.5125	64771.455
5.525	61773.688
5.5375	58442.56
5.55	55272.091
5.5625	51846.057
5.575	48239.836
5.5875	44622.114
5.6	40994.391
5.6125	37517.158
5.625	34091.277
5.6375	30689.596
5.65	27367.569
5.6625	24292.603
5.675	21426.873
5.6875	18785.614
5.7	16247.848
5.7125	14049.17
5.725	12058.224
5.7375	10374.622
5.75	8949.4341
5.7625	7787.1674
5.775	6904.1522
5.7875	6246.4561
5.8	5821.6567
5.8125	5595.909
5.825	5562.9252
5.8375	5648.3491
5.85	5870.3313
5.8625	6230.4174
5.875	6630.9743
5.8875	7055.3095
5.9	7484.3725
5.9125	7866.0048
5.925	8206.8533
5.9375	8524.997
5.95	8719.7918
5.9625	8802.5296
5.975	8775.7648
5.9875	8648.2653
6	8383.5866
6.0125	8097.6787
6.025	7734.6758
6.0375	7279.3357
6.05	6773.7957
6.0625	6287.4497
6.075	5831.2782
6.0875	5458.8347
6.1	5140.5629
6.1125	4972.9156
6.125	4913.6873
6.1375	5022.4224
6.15	5290.5571
6.1625	5730.3196
6.175	6444.9351
6.1875	7401.2916
6.2	8585.6947
6.2125	9925.4556
6.225	11455.096
6.2375	13064.817
6.25	14973.365
6.2625	17030.857
6.275	19127.784
6.2875	21257.743
6.3	23360.176
6.3125	25389.038
6.325	27297.69
6.3375	29367.049
6.35	31208.523
6.3625	32848.432
6.375	34286.788
6.3875	35453.69
6.4	36343.654
6.4125	37224.272
6.425	37762.905
6.4375	38006.393
6.45	37958.023
6.4625	37609.466
6.475	37009.782
6.4875	36285.68
6.5	35358.074
6.5125	34217.04
6.525	32893.603
6.5375	31390.409
6.55	29808.602
6.5625	28151.686
6.575	26505.503
6.5875	24760.886
6.6	23006.695
6.6125	21183.288
6.625	19387.078
6.6375	17776.337
6.65	16225.927
6.6625	14653.955
6.675	13169.259
6.6875	11866.719
6.7	10598.773
6.7125	9454.8465
6.725	8411.1821
6.7375	7413.8576
6.75	6631.1327
6.7625	5930.8271
6.775	5321.1336
6.7875	4823.8508
6.8	4406.6781
6.8125	4072.9408
6.825	3843.278
6.8375	3665.1256
6.85	3565.957
6.8625	3516.427
6.875	3508.0138
6.8875	3522.8669
6.9	3619.9419
6.9125	3719.1412
6.925	3836.7305
6.9375	3950.9875
6.95	4066.3035
6.9625	4206.4871
6.975	4328.0401
6.9875	4420.4714
7	4471.624
7.0125	4497.47
7.025	4478.7633
7.0375	4417.7123
7.05	4360.3038
7.0625	4241.7121
7.075	4097.9584
7.0875	3910.2834
7.1	3704.5738
7.1125	3473.7918
7.125	3237.158
7.1375	3009.3602
7.15	2804.7002
7.1625	2608.0753
7.175	2440.3621
7.1875	2318.7297
7.2	2235.048
7.2125	2234.1238
7.225	2291.2522
7.2375	2422.8263
7.25	2621.9009
7.2625	2902.1638
7.275	3229.0938
7.2875	3644.7665
7.3	4166.2387
7.3125	4706.7099
7.325	5314.6124
7.3375	5981.1304
7.35	6624.4489
7.3625	7298.5849
7.375	8038.8147
7.3875	8716.2712
7.4	9391.9177
7.4125	10035.622
7.425	10613.738
7.4375	11064.055
7.45	11509.132
7.4625	11890.077
7.475	12159.047
7.4875	12329.422
7.5	12381.137
7.5125	12335.928
7.525	12193.801
7.5375	12014.098
7.55	11720.188
7.5625	11362.395
7.575	10905.035
7.5875	10406.828
7.6	9847.2403
7.6125	9282.2778
7.625	8691.4203
7.6375	8092.8574
7.65	7473.4368
7.6625	6821.4401
7.675	6261.6408
7.6875	5727.2954
7.7	5141.9514
7.7125	4690.5861
7.725	4249.4322
7.7375	3840.5105
7.75	3505.9211
7.7625	3193.2895
7.775	2915.4335
7.7875	2720.213
7.8	2549.7842
7.8125	2419.0531
7.825	2311.5061
7.8375	2244.4515
7.85	2204.1596
7.8625	2175.475
7.875	2183.1682
7.8875	2198.5461
7.9	2216.3254
7.9125	2242.9332
7.925	2266.042
7.9375	2302.4272
7.95	2338.1577
7.9625	2364.5463
7.975	2386.8544
7.9875	2402.5584
8	2423.162
8.0125	2442.5989
8.025	2451.7275
8.0375	2450.1672
8.05	2440.6462
8.0625	2419.4605
8.075	2390.1077
8.0875	2342.3949
8.1	2304.2769
8.1125	2256.0425
8.125	2198.6708
8.1375	2134.6571
8.15	2063.7727
8.1625	1987.2037
8.175	1913.3674
8.1875	1842.8198
8.2	1767.0752
8.2125	1688.959
8.225	1610.8361
8.2375	1539.743
8.25	1481.5099
8.2625	1428.0861
8.275	1386.6444
8.2875	1358.2555
8.3	1345.1054
8.3125	1344.1445
8.325	1369.8541
8.3375	1420.6277
8.35	1487.1547
8.3625	1572.6493
8.375	1683.5108
8.3875	1803.048
8.4	1928.4682
8.4125	2092.0037
8.425	2279.4577
8.4375	2442.3549
8.45	2625.5473
8.4625	2808.7749
8.475	2970.6323
8.4875	3140.1674
8.5	3319.84
8.5125	3467.6356
8.525	3603.292
8.5375	3708.8388
8.55	3786.5734
8.5625	3836.0848
8.575	3886.3112
8.5875	3900.0627
8.6	3884.139
8.6125	3840.5363
8.625	3757.7174
8.6375	3672.0915
8.65	3574.0081
8.6625	3444.2144
8.675	3310.5838
8.6875	3157.4425
8.7	2988.609
8.7125	2826.8414
8.725	2661.4916
8.7375	2489.0223
8.75	2342.4302
8.7625	2190.9066
8.775	2046.4584
8.7875	1923.9971
8.8	1813.228
8.8125	1708.5743
8.825	1633.0871
8.8375	1564.2856
8.85	1506.6543
8.8625	1459.6898
8.875	1430.4019
8.8875	1406.272
8.9	1389.7416
8.9125	1394.0595
8.925	1403.1175
8.9375	1412.5914
8.95	1426.8042
8.9625	1442.9059
8.975	1464.5679
8.9875	1484.4214
9	1503.271
9.0125	1517.2837
9.025	1526.8342
9.0375	1532.4099
9.05	1539.8302
9.0625	1543.4566
9.075	1543.5008
9.0875	1536.3884
9.1	1524.0102
9.1125	1506.7693
9.125	1493.8793
9.1375	1471.9586
9.15	1448.1945
9.1625	1416.7938
9.175	1382.7985
9.1875	1343.6397
9.2	1299.3004
9.2125	1256.2901
9.225	1215.4194
9.2375	1169.0286
9.25	1120.3704
9.2625	1067.2038
9.275	1015.0196
9.2875	962.43619
9.3	910.3203
9.3125	868.02163
9.325	823.41527
9.3375	782.07368
9.35	745.45275
9.3625	716.75991
9.375	695.15107
9.3875	681.52555
9.4	670.23866
9.4125	674.57656
9.425	679.74094
9.4375	692.67751
9.45	717.02673
9.4625	757.3632
9.475	797.26487
9.4875	847.44368
9.5	905.51323
9.5125	961.33583
9.525	1030.4686
9.5375	1103.041
9.55	1168.6369
9.5625	1236.5615
9.575	1302.8009
9.5875	1359.4788
9.6	1405.8916
9.6125	1461.7493
9.625	1503.614
9.6375	1538.5069
9.65	1561.7234
9.6625	1573.4667
9.675	1573.9877
9.6875	1572.737
9.7	1558.3694
9.7125	1534.0794
9.725	1499.8277
9.7375	1457.2404
9.75	1412.2992
9.7625	1355.0605
9.775	1302.4882
9.7875	1254.7509
9.8	1204.8047
9.8125	1154.4842
9.825	1107.5363
9.8375	1065.1587
9.85	1028.4244
9.8625	992.40069
9.875	973.11579
9.8875	958.82931
9.9	948.25026
9.9125	948.59217
9.925	944.99598
9.9375	952.52018
9.95	974.70176
9.9625	999.18237
9.975	1026.2131
9.9875	1053.5898
10	1094.1244
