# Integration parameters:
#	qmax	10
#	Orientation Method	Monte Carlo (Mersenne Twister)
#	Orientation Iterations	10000000
#	Convergence	0.001
# 
# Program revision: 3, 2, 0, 0
# //////////////////////////////////////
# Multiple-Domain Composite Model
## //////////////////////////////////////
## Domain Model
## qMax = 10
## Grid size = 80
### //////////////////////////////////////
### Manual symmetry
### Position (0,0,0)
### Rotation (0,0,0)
### Instance 0 translation: (0,6,0)
### Instance 0 rotation: (0.174533,0.349066,0.523599)
### Instance 1 translation: (3,2,2)
### Instance 1 rotation: (1.0472,0.872665,0.698132)
### Instance 2 translation: (9,8,4)
### Instance 2 rotation: (1.22173,1.39626,1.5708)
### Instance 3 translation: (2,-4,-3.14159)
### Instance 3 rotation: (2.0944,1.91986,1.74533)
### Scale: 1
### Used grid: 0
#### //////////////////////////////////////
#### Scripted symmetry
#### Position (0,0,0)
#### Rotation (0,0,0)
#### Information = {
#### 	Name = "P2_{1}3",
#### 	Type = "Symmetry",
#### 	NLP = 1,
#### 	MinLayers = 6,
#### 	MaxLayers = 6,
#### };
#### 
#### function Populate(p, nlayers)	 
#### 	if (p == nil or nlayers ~= 6 or table.getn(p[1]) ~= 1) then				
#### 		error("Parameter matrix must be 1x6, it is " .. nlayers .. "x" .. table.getn(p[1]));
#### 	end
#### 	
#### 	--error("Params: " .. p[1][1] .. ", " .. p[2][1] .. ", " .. p[3][1]);
#### 
#### 	a		= p[1][1];
#### 	b 		= p[2][1];
#### 	c 		= p[3][1];
#### 	x		= p[4][1]
#### 	y		= p[5][1]
#### 	z 		= p[6][1]
#### 	
#### 	res = {
#### 	{	a*(x),		b*(y),		c*(z),		0.0,	0.0,	0.0},
#### 	{	a*(0.5+x),	b*(0.5-y),	c*(-z),		0.0,	0.0,	0.0},
#### 	{	a*(-x),		b*(0.5+y),	c*(0.5-z),	0.0,	0.0,	0.0},
#### 	{	a*(0.5-x),	b*(-y),		c*(0.5+z),	0.0,	0.0,	0.0},
#### 	{	a*(z),		b*(x),		c*(y),		0.0,	0.0,	0.0},
#### 	{	a*(0.5-z),	b*(-x),		c*(0.5+y),	0.0,	0.0,	0.0},
#### 	{	a*(0.5+z),	b*(0.5-x),	c*(-y),		0.0,	0.0,	0.0},
#### 	{	a*(-z),		b*(0.5+x),	c*(-y),		0.0,	0.0,	0.0},
#### 	{	a*(-y),		b*(z),		c*(x),		0.0,	0.0,	0.0},
#### 	{	a*(-y),		b*(0.5+z),	c*(0.5-x),	0.0,	0.0,	0.0},
#### 	{	a*(0.5-y),	b*(-z),		c*(0.5+x),	0.0,	0.0,	0.0},
#### 	{	a*(0.5+y),	b*(0.5-z),	c*(-x),		0.0,	0.0,	0.0},
#### 	}
#### 	
#### 	return res;
#### end
#### 
#### -----------------------------------------------------
#### -- UI
#### 
#### -- Optional display parameters
#### function GetLayerName(index)
#### 	if index == 0 then
#### 		return "a";
#### 	elseif 	index == 1 then
#### 		return "b";
#### 	elseif 	index == 2 then
#### 		return "c";
#### 	elseif 	index == 3 then
#### 		return "x";
#### 	elseif 	index == 4 then
#### 		return "y";
#### 	elseif 	index == 5 then
#### 		return "z";		
#### 	end
#### end
#### 
#### function GetLayerParameterName(index)
#### 	if index == 0 then
#### 		return "Parameter";
#### 	else
#### 		return "N/A"
#### 	end
#### end
#### 	
#### function IsParamApplicable(layer, layerParam)
#### 	return true;
#### end
#### 
#### function GetDefaultValue(layer, layerParam)
#### 	if layer == 0 then
#### 		return 11.1;
#### 	elseif layer == 1 then
#### 		return 19.8;
#### 	elseif layer == 2 then
#### 		return 11.1;
#### 	elseif layer == 3 then
#### 		return 0.08;
#### 	elseif layer == 3 then
#### 		return 0.08;
#### 	elseif layer == 4 then
#### 		return 0.3 - 0.015*19.8;	
#### 	elseif layer == 5 then
#### 		return 0.045;	
#### 	end
#### end
#### 
#### Parameters:
#### 	N/A
#### N/A	11.1
#### N/A	19.800000000000001
#### N/A	11.1
#### N/A	0.080000000000000002
#### N/A	0.0030000000000000001
#### N/A	0.044999999999999998
#### Coordinates:
#### 	0.88800000000000001	0.059400000000000001	0.49949999999999994	0	0	0
#### 	6.4379999999999997	9.8406000000000002	-0.49949999999999994	0	0	0
#### 	-0.88800000000000001	9.9594000000000005	5.0505000000000004	0	0	0
#### 	4.6619999999999999	-0.059400000000000001	6.0495000000000001	0	0	0
#### 	0.49949999999999994	1.5840000000000001	0.033299999999999996	0	0	0
#### 	5.0505000000000004	-1.5840000000000001	5.5832999999999995	0	0	0
#### 	6.0495000000000001	8.3160000000000007	-0.033299999999999996	0	0	0
#### 	-0.49949999999999994	11.484	-0.033299999999999996	0	0	0
#### 	-0.033299999999999996	0.89100000000000001	0.88800000000000001	0	0	0
#### 	-0.033299999999999996	10.791	4.6619999999999999	0	0	0
#### 	5.5167000000000002	-0.89100000000000001	6.4379999999999997	0	0	0
#### 	5.5832999999999995	9.0090000000000003	-0.88800000000000001	0	0	0
#### Used grid: 0
##### //////////////////////////////////////
##### PDB file: C:\Delete\Examples for Devora\SfSymmetry PDB\2om3_State1.pdb
##### The atoms were centered to the center of mass
##### Position (0,0,0)
##### Rotation (0,0,0)
##### N^3; N = 80
##### qMax = 10
##### Grid step size = 0.25
##### Solvent ED amplitude subtracted: 333
##### Solvent radius: 0.14
##### Solvent ED step size: 0.05
##### Outer Solvent ED: 0
##### Solvent radius type: Dummy atoms
##### Scale: 1

0	4.1664546e+009
0.0125	4.1378353e+009
0.025	4.0529968e+009
0.0375	3.915409e+009
0.05	3.7309163e+009
0.0625	3.5073183e+009
0.075	3.2538093e+009
0.0875	2.9803275e+009
0.1	2.6968794e+009
0.1125	2.4129034e+009
0.125	2.1367278e+009
0.1375	1.8751696e+009
0.15	1.6332976e+009
0.1625	1.4143665e+009
0.175	1.2199082e+009
0.1875	1.0499548e+009
0.2	9.0334627e+008
0.2125	7.7808427e+008
0.225	6.7168515e+008
0.2375	5.8149549e+008
0.25	5.0494547e+008
0.2625	4.3668624e+008
0.275	3.812072e+008
0.2875	3.3347217e+008
0.3	2.9229075e+008
0.3125	2.5674988e+008
0.325	2.26142e+008
0.3375	1.9989567e+008
0.35	1.7751894e+008
0.3625	1.5856103e+008
0.375	1.4259482e+008
0.3875	1.2921489e+008
0.4	1.1804668e+008
0.4125	1.0875925e+008
0.425	1.0107556e+008
0.4375	94776606
0.45	89697096
0.4625	85713769
0.475	82728751
0.4875	80651515
0.5	79383405
0.5125	78639680
0.525	78781620
0.5375	79313517
0.55	80063316
0.5625	80867056
0.575	81585400
0.5875	82117755
0.6	82411295
0.6125	82463287
0.625	82316426
0.6375	82048131
0.65	81755747
0.6625	81540162
0.675	81490421
0.6875	81671487
0.7	82116657
0.7125	82825148
0.725	83764568
0.7375	84877163
0.75	86088452
0.7625	87299519
0.775	88573341
0.7875	89691274
0.8	90589884
0.8125	91221489
0.825	91554564
0.8375	91572481
0.85	91271249
0.8625	90656958
0.875	89743440
0.8875	88550428
0.9	87102258
0.9125	85426946
0.925	83555447
0.9375	81520717
0.95	79356587
0.9625	77096301
0.975	74770873
0.9875	72407555
1	70028519
1.0125	67502012
1.025	65105204
1.0375	62717397
1.05	60343545
1.0625	57986546
1.075	55649248
1.0875	53336009
1.1	51053753
1.1125	48812544
1.125	46625082
1.1375	44505879
1.15	42469784
1.1625	40530388
1.175	38698772
1.1875	36982385
1.2	35384756
1.2125	33905611
1.225	32541525
1.2375	31287018
1.25	30135551
1.2625	29151879
1.275	28182654
1.2875	27297637
1.3	26492546
1.3125	25763372
1.325	25105690
1.3375	24513875
1.35	23980526
1.3625	23496277
1.375	23049956
1.3875	22629214
1.4	22221445
1.4125	21814871
1.425	21399658
1.4375	20968792
1.45	20518681
1.4625	20049306
1.475	19563943
1.4875	19068551
1.5	18570823
1.5125	18086191
1.525	17619015
1.5375	17170074
1.55	16744750
1.5625	16346328
1.575	15975926
1.5875	15632636
1.6	15313872
1.6125	15015865
1.625	14734131
1.6375	14463950
1.65	14200725
1.6625	13940234
1.675	13678804
1.6875	13413354
1.7	13141437
1.7125	12861222
1.725	12571485
1.7375	12271641
1.75	11961747
1.7625	11684567
1.775	11360451
1.7875	11029165
1.8	10693480
1.8125	10356693
1.825	10022476
1.8375	9694627.2
1.85	9376782.7
1.8625	9072155.3
1.875	8783242.8
1.8875	8511638.5
1.9	8257891.8
1.9125	8021467
1.925	7800827.1
1.9375	7593575.1
1.95	7396704.9
1.9625	7206878.9
1.975	7020726.8
1.9875	6835150.6
2	6647562.9
2.0125	6467177
2.025	6269368.7
2.0375	6066525.5
2.05	5859378.4
2.0625	5649352.6
2.075	5438380
2.0875	5228696.7
2.1	5022630.3
2.1125	4822375.3
2.125	4629837.8
2.1375	4446481.4
2.15	4273245.2
2.1625	4110515.6
2.175	3958135.6
2.1875	3815492.1
2.2	3681607.1
2.2125	3555268.4
2.225	3435168.5
2.2375	3320026.7
2.25	3208717
2.2625	3089177.8
2.275	2984235.4
2.2875	2881514.3
2.3	2781036.3
2.3125	2683053.4
2.325	2587980.8
2.3375	2496327.5
2.35	2408624.8
2.3625	2325351.9
2.375	2246890.3
2.3875	2173479.7
2.4	2105200.5
2.4125	2041975.8
2.425	1983584
2.4375	1929694.4
2.45	1879898.4
2.4625	1833746.7
2.475	1790782.6
2.4875	1750563.5
2.5	1712681.3
2.5125	1636907.2
2.525	1604949.2
2.5375	1574094.7
2.55	1544097.2
2.5625	1514743.5
2.575	1485844.3
2.5875	1457233
2.6	1428769.5
2.6125	1400347.1
2.625	1371906.9
2.6375	1343447.4
2.65	1315035.2
2.6625	1286808.3
2.675	1258971.3
2.6875	1231786.1
2.7	1205550.5
2.7125	1180573
2.725	1157145.4
2.7375	1136068.5
2.75	1118860.3
2.7625	1126185
2.775	1112301.2
2.7875	1100404.4
2.8	1090331.3
2.8125	1081844.6
2.825	1074656.5
2.8375	1068455.2
2.85	1062929.4
2.8625	1057788.2
2.875	1052775.3
2.8875	1047675
2.9	1042312.9
2.9125	1036552
2.925	1030285.4
2.9375	1023430.6
2.95	1015924.3
2.9625	1007721.1
2.975	998795.09
2.9875	989144.23
3	978796.51
3.0125	969170.87
3.025	959386.49
3.0375	949385.83
3.05	939357.23
3.0625	929504.49
3.075	920030.94
3.0875	911123.13
3.1	902935.66
3.1125	895578.3
3.125	889110.17
3.1375	883538.16
3.15	878822.63
3.1625	874888.04
3.175	871636.89
3.1875	868965.52
3.2	866778.04
3.2125	864997.38
3.225	863571.23
3.2375	862472.58
3.25	861694.81
3.2625	860884.49
3.275	862838.41
3.2875	865103.26
3.3	867651.7
3.3125	870429.81
3.325	873352.69
3.3375	876304.31
3.35	879142.25
3.3625	881706.97
3.375	883833.78
3.3875	885367.17
3.4	886175.07
3.4125	886161.51
3.425	885276.4
3.4375	883521.2
3.45	880950.01
3.4625	877665.7
3.475	873811.88
3.4875	869560.69
3.5	865098.97
3.5125	858993.97
3.525	856039.84
3.5375	853323.27
3.55	850986.39
3.5625	849126.56
3.575	847793.42
3.5875	846991.19
3.6	846685.86
3.6125	846816.46
3.625	847309.29
3.6375	848093.29
3.65	849114.79
3.6625	850349.38
3.675	851809.68
3.6875	853546.92
3.7	855646.77
3.7125	858218.87
3.725	861381.75
3.7375	865245.09
3.75	869891.03
3.7625	883625.94
3.775	891630.93
3.7875	900282.66
3.8	909437.14
3.8125	918914.86
3.825	928520.08
3.8375	938061.8
3.85	947373.96
3.8625	956332.74
3.875	964865.69
3.8875	972954.2
3.9	980626.29
3.9125	987941.56
3.925	994970.87
3.9375	1001772.2
3.95	1008369.1
3.9625	1014732.9
3.975	1020774.1
3.9875	1026342.6
4	1031239
4.0125	1028135.5
4.025	1032246.9
4.0375	1035173.6
4.05	1036808.3
4.0625	1037118.3
4.075	1036162.5
4.0875	1034098.4
4.1	1031178.8
4.1125	1027738.9
4.125	1024174.7
4.1375	1020916.4
4.15	1018398.2
4.1625	1017030.2
4.175	1017171.6
4.1875	1019110.8
4.2	1023051.4
4.2125	1029104.9
4.225	1037288.7
4.2375	1047532
4.25	1059681.4
4.2625	1073544.2
4.275	1090268.4
4.2875	1108091.6
4.3	1126736.1
4.3125	1145914.4
4.325	1165341.5
4.3375	1184739.8
4.35	1203842.9
4.3625	1222405.2
4.375	1240200.4
4.3875	1257028.5
4.4	1272715.7
4.4125	1287111.9
4.425	1300094.2
4.4375	1311561
4.45	1321433.6
4.4625	1329654
4.475	1336184.4
4.4875	1341011.5
4.5	1344147.6
4.5125	1350706.2
4.525	1351974.7
4.5375	1351679.6
4.55	1350008.1
4.5625	1347193.9
4.575	1343507.3
4.5875	1339239.9
4.6	1334685.8
4.6125	1330119.9
4.625	1325778.7
4.6375	1321842.5
4.65	1318425.2
4.6625	1315570.6
4.675	1313256
4.6875	1311404.3
4.7	1309900.7
4.7125	1308614
4.725	1307418.1
4.7375	1306210.8
4.75	1304929.2
4.7625	1312870.6
4.775	1313198.7
4.7875	1313627.3
4.8	1314274.1
4.8125	1315265.5
4.825	1316719.9
4.8375	1318730.7
4.85	1321352.9
4.8625	1324594.4
4.875	1328413.3
4.8875	1332722.4
4.9	1337398.8
4.9125	1342298.2
4.925	1347273.2
4.9375	1352189.3
4.95	1356942.1
4.9625	1361467.5
4.975	1365747.1
4.9875	1369808.2
5	1373714.5
5.0125	1372123.2
5.025	1377566.4
5.0375	1383253.1
5.05	1389258.4
5.0625	1395603.1
5.075	1402244.6
5.0875	1409072.5
5.1	1415910.6
5.1125	1422528.8
5.125	1428655.9
5.1375	1434001
5.15	1438273
5.1625	1441201.4
5.175	1442556
5.1875	1442160.7
5.2	1439904.8
5.2125	1435748.6
5.225	1429724.8
5.2375	1421935.1
5.25	1412545.6
5.2625	1401618.5
5.275	1390804.1
5.2875	1379345.6
5.3	1367597.3
5.3125	1355903.7
5.325	1344580.7
5.3375	1333904.9
5.35	1324103
5.3625	1315340.9
5.375	1307720.3
5.3875	1301273.5
5.4	1295965.4
5.4125	1291698.4
5.425	1288320
5.4375	1285636.2
5.45	1283426.6
5.4625	1281461.3
5.475	1279519.6
5.4875	1277405.3
5.5	1274961.5
5.5125	1274507
5.525	1272540.6
5.5375	1270172.3
5.55	1267477.9
5.5625	1264566.6
5.575	1261563.8
5.5875	1258593.1
5.6	1255761.3
5.6125	1253143.2
5.625	1250773.5
5.6375	1248642.5
5.65	1246697.2
5.6625	1244848.5
5.675	1242980.5
5.6875	1240963.9
5.7	1238669.7
5.7125	1235982.6
5.725	1232813.3
5.7375	1229106.5
5.75	1224847.1
5.7625	1208461.8
5.775	1203345.3
5.7875	1198121.1
5.8	1192964.8
5.8125	1188046.3
5.825	1183515.1
5.8375	1179490.6
5.85	1176054.5
5.8625	1173246.7
5.875	1171066.6
5.8875	1169476.4
5.9	1168409.2
5.9125	1167778.4
5.925	1167487.7
5.9375	1167441.1
5.95	1167550.7
5.9625	1167742
5.975	1167956.2
5.9875	1168148.5
6	1168285
6.0125	1179340.4
6.025	1180632.4
6.0375	1181727.5
6.05	1182580.6
6.0625	1183141.8
6.075	1183357
6.0875	1183168.9
6.1	1182520
6.1125	1181357.1
6.125	1179635.5
6.1375	1177323.6
6.15	1174406.1
6.1625	1170886.8
6.175	1166788.2
6.1875	1162151.5
6.2	1157033.8
6.2125	1151504.6
6.225	1145643.1
6.2375	1139532.5
6.25	1133257.9
6.2625	1121599.3
6.275	1116690.9
6.2875	1112026.3
6.3	1107679.8
6.3125	1103703.9
6.325	1100128.5
6.3375	1096963.2
6.35	1094200.3
6.3625	1091816.6
6.375	1089777.1
6.3875	1088036.8
6.4	1086543.1
6.4125	1085237.6
6.425	1084057.3
6.4375	1082936.1
6.45	1081806.9
6.4625	1080603.5
6.475	1079264
6.4875	1077733.6
6.5	1075969.5
6.5125	1068671
6.525	1068093
6.5375	1067579.3
6.55	1067171.3
6.5625	1066909.5
6.575	1066828.5
6.5875	1066952.2
6.6	1067288.5
6.6125	1067824.6
6.625	1068523.2
6.6375	1069321.1
6.65	1070129.5
6.6625	1070837.7
6.675	1071318.5
6.6875	1071437.2
6.7	1071060.6
6.7125	1070067.5
6.725	1068358.3
6.7375	1065862.1
6.75	1062542.1
6.7625	1049532.7
6.775	1046644.8
6.7875	1043057.2
6.8	1038813.6
6.8125	1033972.2
6.825	1028597.8
6.8375	1022756.6
6.85	1016511.4
6.8625	1009916.4
6.875	1003017.4
6.8875	995850.03
6.9	988442.44
6.9125	980819.55
6.925	973005.1
6.9375	965028.15
6.95	956924.86
6.9625	948742.18
6.975	940540.05
6.9875	932389.02
7	924370.59
7.0125	916351.71
7.025	909850.39
7.0375	903773.68
7.05	898227.86
7.0625	893300.61
7.075	889052.55
7.0875	885513.23
7.1	882678.86
7.1125	880512.03
7.125	878945.94
7.1375	877889.6
7.15	877236.12
7.1625	876871.78
7.175	876684.76
7.1875	876573.65
7.2	876453.67
7.2125	876260.55
7.225	875951.74
7.2375	875504.45
7.25	874911.9
7.2625	878766.5
7.275	879113.89
7.2875	879323.15
7.3	879410.91
7.3125	879385.5
7.325	879245
7.3375	878976.84
7.35	878559.14
7.3625	877962.98
7.375	877155.83
7.3875	876104.92
7.4	874780.53
7.4125	873159.15
7.425	871225.16
7.4375	868972.55
7.45	866405.05
7.4625	863535.79
7.475	860387.03
7.4875	856987.84
7.5	853373.55
7.5125	843523.88
7.525	840683.68
7.5375	837790.44
7.55	834890.85
7.5625	832026.45
7.575	829230.77
7.5875	826527.55
7.6	823929.52
7.6125	821436.35
7.625	819035.11
7.6375	816700.16
7.65	814395.22
7.6625	812076.34
7.675	809695.29
7.6875	807204.86
7.7	804563.2
7.7125	801738.9
7.725	798715.25
7.7375	795492.16
7.75	792087.92
7.7625	790970.6
7.775	787754.21
7.7875	784588.48
7.8	781546.74
7.8125	778693.05
7.825	776076.61
7.8375	773728.53
7.85	771660.32
7.8625	769863.11
7.875	768310.36
7.8875	766960.97
7.9	765764.48
7.9125	764666.68
7.925	763614.65
7.9375	762561.43
7.95	761468.58
7.9625	760307.23
7.975	759057.14
7.9875	757703.98
8	756236.11
8.0125	750750.74
8.025	749936.57
8.0375	749037.78
8.05	748036.05
8.0625	746909.13
8.075	745635.97
8.0875	744202.59
8.1	742607.76
8.1125	740868.05
8.125	739019.36
8.1375	737116.25
8.15	735227.3
8.1625	733427.05
8.175	731786.42
8.1875	730360.77
8.2	729180.2
8.2125	728241.61
8.225	727504.75
8.2375	726893.42
8.25	726301.03
8.2625	725921.2
8.275	725947.04
8.2875	725606.73
8.3	724831.84
8.3125	723586.79
8.325	721872.96
8.3375	719728.19
8.35	717221.72
8.3625	714446.6
8.375	711507.79
8.3875	708511.73
8.4	705555.67
8.4125	702719.38
8.425	700060.88
8.4375	697613.34
8.45	695387.52
8.4625	693375.21
8.475	691554.65
8.4875	689896.63
8.5	688368.94
8.5125	684903.61
8.525	684410.98
8.5375	684036.72
8.55	683784.39
8.5625	683655.57
8.575	683646.54
8.5875	683745.82
8.6	683933.06
8.6125	684179.73
8.625	684451.34
8.6375	684710.73
8.65	684921.58
8.6625	685051.62
8.675	685074.83
8.6875	684972.2
8.7	684731.28
8.7125	684344.26
8.725	683805.58
8.7375	683109.58
8.75	682248.32
8.7625	671229.73
8.775	670573.33
8.7875	669681.44
8.8	668565.32
8.8125	667242.67
8.825	665737.05
8.8375	664076.37
8.85	662290.73
8.8625	660410.76
8.875	658464.57
8.8875	656476.6
8.9	654466.53
8.9125	652449.21
8.925	650436.33
8.9375	648437.47
8.95	646463.1
8.9625	644526.87
8.975	642647.41
8.9875	640849.88
9	641441.88
9.0125	650755.86
9.025	650489.82
9.0375	650376.4
9.05	650453.51
9.0625	650758.57
9.075	651324.72
9.0875	652177
9.1	653329.57
9.1125	654783.52
9.125	656527.11
9.1375	658536.7
9.15	660779.45
9.1625	663217.22
9.175	665809.67
9.1875	668519.39
9.2	671314.24
9.2125	674169.48
9.225	677068.36
9.2375	680000.31
9.25	682959.88
9.2625	683251.57
9.275	686949.4
9.2875	690780.47
9.3	694755.25
9.3125	698873.87
9.325	703123.58
9.3375	707478.63
9.35	711901.44
9.3625	716343.15
9.375	720748.13
9.3875	725056.11
9.4	729206.03
9.4125	733139.72
9.425	736804.06
9.4375	740155.16
9.45	743158.97
9.4625	745792.17
9.475	748042.35
9.4875	749906.35
9.5	751389.9
9.5125	750862.05
9.525	752690.41
9.5375	754355.58
9.55	755889.81
9.5625	757319.97
9.575	758666.96
9.5875	759946.1
9.6	761168.63
9.6125	762342.88
9.625	763476.73
9.6375	764578.93
9.65	765660.75
9.6625	766736.95
9.675	767825.92
9.6875	768949.66
9.7	770132.42
9.7125	771399.03
9.725	772772.63
9.7375	774271.82
9.75	775908.47
9.7625	777702.59
9.775	780990.04
9.7875	784425.5
9.8	787964.47
9.8125	791553.19
9.825	795131.52
9.8375	798637.5
9.85	802012.2
9.8625	805202.73
9.875	808167.35
9.8875	810876.81
9.9	813316
9.9125	815484.14
9.925	817393.22
9.9375	819066.95
9.95	820537.43
9.9625	821842.15
9.975	823020.85
9.9875	824111.89
10	825150.08
