# Integration parameters:
#	qmax	10
#	Orientation Method	Monte Carlo (Mersenne Twister)
#	Orientation Iterations	10000000
#	Convergence	0.001
# 
# Program revision: 3, 2, 0, 0
# //////////////////////////////////////
# Multiple-Domain Composite Model
## //////////////////////////////////////
## Domain Model
## qMax = 10
## Grid size = 80
### //////////////////////////////////////
### Scripted symmetry
### Position (0,0,0)
### Rotation (0,0,0)
### Information = {
### 	Name = "P2_{1}3",
### 	Type = "Symmetry",
### 	NLP = 1,
### 	MinLayers = 6,
### 	MaxLayers = 6,
### };
### 
### function Populate(p, nlayers)	 
### 	if (p == nil or nlayers ~= 6 or table.getn(p[1]) ~= 1) then				
### 		error("Parameter matrix must be 1x6, it is " .. nlayers .. "x" .. table.getn(p[1]));
### 	end
### 	
### 	--error("Params: " .. p[1][1] .. ", " .. p[2][1] .. ", " .. p[3][1]);
### 
### 	a		= p[1][1];
### 	b 		= p[2][1];
### 	c 		= p[3][1];
### 	x		= p[4][1]
### 	y		= p[5][1]
### 	z 		= p[6][1]
### 	
### 	res = {
### 	{	a*(x),		b*(y),		c*(z),		0.0,	0.0,	0.0},
### 	{	a*(0.5+x),	b*(0.5-y),	c*(-z),		0.0,	0.0,	0.0},
### 	{	a*(-x),		b*(0.5+y),	c*(0.5-z),	0.0,	0.0,	0.0},
### 	{	a*(0.5-x),	b*(-y),		c*(0.5+z),	0.0,	0.0,	0.0},
### 	{	a*(z),		b*(x),		c*(y),		0.0,	0.0,	0.0},
### 	{	a*(0.5-z),	b*(-x),		c*(0.5+y),	0.0,	0.0,	0.0},
### 	{	a*(0.5+z),	b*(0.5-x),	c*(-y),		0.0,	0.0,	0.0},
### 	{	a*(-z),		b*(0.5+x),	c*(-y),		0.0,	0.0,	0.0},
### 	{	a*(-y),		b*(z),		c*(x),		0.0,	0.0,	0.0},
### 	{	a*(-y),		b*(0.5+z),	c*(0.5-x),	0.0,	0.0,	0.0},
### 	{	a*(0.5-y),	b*(-z),		c*(0.5+x),	0.0,	0.0,	0.0},
### 	{	a*(0.5+y),	b*(0.5-z),	c*(-x),		0.0,	0.0,	0.0},
### 	}
### 	
### 	return res;
### end
### 
### -----------------------------------------------------
### -- UI
### 
### -- Optional display parameters
### function GetLayerName(index)
### 	if index == 0 then
### 		return "a";
### 	elseif 	index == 1 then
### 		return "b";
### 	elseif 	index == 2 then
### 		return "c";
### 	elseif 	index == 3 then
### 		return "x";
### 	elseif 	index == 4 then
### 		return "y";
### 	elseif 	index == 5 then
### 		return "z";		
### 	end
### end
### 
### function GetLayerParameterName(index)
### 	if index == 0 then
### 		return "Parameter";
### 	else
### 		return "N/A"
### 	end
### end
### 	
### function IsParamApplicable(layer, layerParam)
### 	return true;
### end
### 
### function GetDefaultValue(layer, layerParam)
### 	if layer == 0 then
### 		return 11.1;
### 	elseif layer == 1 then
### 		return 19.8;
### 	elseif layer == 2 then
### 		return 11.1;
### 	elseif layer == 3 then
### 		return 0.08;
### 	elseif layer == 3 then
### 		return 0.08;
### 	elseif layer == 4 then
### 		return 0.3 - 0.015*19.8;	
### 	elseif layer == 5 then
### 		return 0.045;	
### 	end
### end
### 
### Parameters:
### 	N/A
### N/A	11.1
### N/A	19.800000000000001
### N/A	11.1
### N/A	0.080000000000000002
### N/A	0.0030000000000000001
### N/A	0.044999999999999998
### Coordinates:
### 	0.88800000000000001	0.059400000000000001	0.49949999999999994	0	0	0
### 	6.4379999999999997	9.8406000000000002	-0.49949999999999994	0	0	0
### 	-0.88800000000000001	9.9594000000000005	5.0505000000000004	0	0	0
### 	4.6619999999999999	-0.059400000000000001	6.0495000000000001	0	0	0
### 	0.49949999999999994	1.5840000000000001	0.033299999999999996	0	0	0
### 	5.0505000000000004	-1.5840000000000001	5.5832999999999995	0	0	0
### 	6.0495000000000001	8.3160000000000007	-0.033299999999999996	0	0	0
### 	-0.49949999999999994	11.484	-0.033299999999999996	0	0	0
### 	-0.033299999999999996	0.89100000000000001	0.88800000000000001	0	0	0
### 	-0.033299999999999996	10.791	4.6619999999999999	0	0	0
### 	5.5167000000000002	-0.89100000000000001	6.4379999999999997	0	0	0
### 	5.5832999999999995	9.0090000000000003	-0.88800000000000001	0	0	0
### Used grid: 0
### //////////////////////////////////////
###Loaded amplitude from file
### Position (0,0,0)
### Rotation (0,0,0)
#### //////////////////////////////////////
#### Program revision: 3, 2, 0, 0
#### //////////////////////////////////////
#### PDB file: C:\Delete\Examples for Devora\PDB vs Amp\2om3_State1.pdb
#### The atoms were centered to the center of mass
#### Position (0,0,0)
#### Rotation (0,0,0)
#### N^3; N = 80
#### qMax = 10
#### Grid step size = 0.25
#### Solvent ED amplitude subtracted: 333
#### Solvent radius: 0.14
#### Solvent ED step size: 0.05
#### Outer Solvent ED: 0
#### Solvent radius type: Dummy atoms
#### Scale: 1
###
###Scale: 1

0	2.6040345e+008
0.0125	2.5977773e+008
0.025	2.5790975e+008
0.0375	2.5482609e+008
0.05	2.505699e+008
0.0625	2.451999e+008
0.075	2.3878923e+008
0.0875	2.3142393e+008
0.1	2.232012e+008
0.1125	2.1422753e+008
0.125	2.0461665e+008
0.1375	1.9448743e+008
0.15	1.839617e+008
0.1625	1.7316208e+008
0.175	1.6220988e+008
0.1875	1.512231e+008
0.2	1.4031452e+008
0.2125	1.2959002e+008
0.225	1.1914702e+008
0.2375	1.0907319e+008
0.25	99445425
0.2625	90451221
0.275	81944625
0.2875	74028871
0.3	66735687
0.3125	60084203
0.325	54081485
0.3375	48723489
0.35	43996169
0.3625	39876614
0.375	36334459
0.3875	33333189
0.4	30831570
0.4125	28785033
0.425	27146946
0.4375	25869885
0.45	24906715
0.4625	24211589
0.475	23740785
0.4875	23453383
0.5	23311798
0.5125	23185248
0.525	23249036
0.5375	23365523
0.55	23512307
0.5625	23670985
0.575	23826972
0.5875	23969226
0.6	24089907
0.6125	24183980
0.625	24248790
0.6375	24283626
0.65	24289277
0.6625	24267624
0.675	24221251
0.6875	24153100
0.7	24066178
0.7125	23963314
0.725	23846968
0.7375	23719105
0.75	23581107
0.7625	23390724
0.775	23248889
0.7875	23094880
0.8	22928099
0.8125	22747518
0.825	22551780
0.8375	22339314
0.85	22108449
0.8625	21857533
0.875	21585038
0.8875	21289658
0.9	20970396
0.9125	20626625
0.925	20258144
0.9375	19865197
0.95	19448486
0.9625	19009166
0.975	18548816
0.9875	18069409
1	17573251
1.0125	17173705
1.025	16648371
1.0375	16113139
1.05	15571211
1.0625	15025812
1.075	14480162
1.0875	13937395
1.1	13400492
1.1125	12872272
1.125	12355307
1.1375	11851928
1.15	11364183
1.1625	10893814
1.175	10442272
1.1875	10010688
1.2	9599905.9
1.2125	9210478.2
1.225	8842673.6
1.2375	8496521.2
1.25	8171805.2
1.2625	7826857.5
1.275	7549296
1.2875	7291528.9
1.3	7052671.5
1.3125	6831721.6
1.325	6627599.9
1.3375	6439164.6
1.35	6265227.3
1.3625	6104584.4
1.375	5956020.4
1.3875	5818333.6
1.4	5690344.1
1.4125	5570901.5
1.425	5458902.4
1.4375	5353288.9
1.45	5253062.6
1.4625	5157285.6
1.475	5065082
1.4875	4975647
1.5	4888241.9
1.5125	4741978.7
1.525	4657787.2
1.5375	4573627.5
1.55	4489091.7
1.5625	4403837.3
1.575	4317591.4
1.5875	4230146.4
1.6	4141356.2
1.6125	4051140.1
1.625	3959473.6
1.6375	3866392
1.65	3771984.5
1.6625	3676388.3
1.675	3579790.2
1.6875	3482414.9
1.7	3384525.4
1.7125	3286414.6
1.725	3188395.5
1.7375	3090801
1.75	2993968.2
1.7625	2923307.9
1.775	2829829.3
1.7875	2737807.3
1.8	2647563.2
1.8125	2559390.7
1.825	2473555.9
1.8375	2390289.3
1.85	2309779.2
1.8625	2232173.8
1.875	2157572.9
1.8875	2086032.6
1.9	2017563.2
1.9125	1952128.8
1.925	1889655.2
1.9375	1830028.6
1.95	1773104.4
1.9625	1718711.4
1.975	1666656.2
1.9875	1616733.3
2	1568727.6
2.0125	1537022.2
2.025	1493198
2.0375	1450588.9
2.05	1409005.3
2.0625	1368281.9
2.075	1328277.3
2.0875	1288877.4
2.1	1249997.5
2.1125	1211579.1
2.125	1173594.1
2.1375	1136039.3
2.15	1098935.5
2.1625	1062324.4
2.175	1026262.4
2.1875	990821.04
2.2	956079.58
2.2125	922122.08
2.225	889033.79
2.2375	856895.02
2.25	825781.66
2.2625	797724.42
2.275	769439.89
2.2875	742254.36
2.3	716209.38
2.3125	691332.71
2.325	667635.89
2.3375	645115.18
2.35	623752.83
2.3625	603516.78
2.375	584364.87
2.3875	566245.05
2.4	549097.98
2.4125	532859.45
2.425	517461.35
2.4375	502835.5
2.45	488914.35
2.4625	475632.9
2.475	462930.37
2.4875	450750.4
2.5	439043.35
2.5125	428284.01
2.525	417985.18
2.5375	408027.44
2.55	398392.5
2.5625	389069.04
2.575	380051.34
2.5875	371338.74
2.6	362935.03
2.6125	354846.8
2.625	347083.54
2.6375	339655.9
2.65	332574.97
2.6625	325851.45
2.675	319494.3
2.6875	313510.76
2.7	307905.14
2.7125	302678.41
2.725	297827.86
2.7375	293346.4
2.75	289222.95
2.7625	281935.69
2.775	278859.38
2.7875	276076.36
2.8	273566.89
2.8125	271308.04
2.825	269273.9
2.8375	267436.16
2.85	265764.69
2.8625	264228.11
2.875	262794.65
2.8875	261432.67
2.9	260111.42
2.9125	258801.69
2.925	257476.33
2.9375	256110.89
2.95	254684.01
2.9625	253177.8
2.975	251578.09
2.9875	249874.45
3	248060.42
3.0125	246060.48
3.025	244454.2
3.0375	242752.8
3.05	240970.73
3.0625	239125.23
3.075	237235.61
3.0875	235322.57
3.1	233407.51
3.1125	231511.69
3.125	229655.74
3.1375	227858.85
3.15	226138.23
3.1625	224508.63
3.175	222981.8
3.1875	221566.37
3.2	220267.53
3.2125	219086.99
3.225	218023.02
3.2375	217070.54
3.25	216221.47
3.2625	214196.91
3.275	213932.2
3.2875	213751.82
3.3	213644.13
3.3125	213596.27
3.325	213594.59
3.3375	213625.16
3.35	213674.18
3.3625	213728.44
3.375	213775.62
3.3875	213804.65
3.4	213805.94
3.4125	213771.58
3.425	213695.45
3.4375	213573.3
3.45	213402.76
3.4625	213183.32
3.475	212916.22
3.4875	212604.33
3.5	212252.05
3.5125	213722.19
3.525	213755.07
3.5375	213745.73
3.55	213708.06
3.5625	213656.29
3.575	213604.72
3.5875	213567.45
3.6	213558.15
3.6125	213589.82
3.625	213674.65
3.6375	213823.8
3.65	214047.24
3.6625	214353.64
3.675	214750.19
3.6875	215242.48
3.7	215834.34
3.7125	216527.76
3.725	217322.73
3.7375	218217.19
3.75	219206.88
3.7625	219689.37
3.775	221205.32
3.7875	222771.37
3.8	224380.44
3.8125	226024.26
3.825	227693.63
3.8375	229378.44
3.85	231067.82
3.8625	232750.43
3.875	234414.43
3.8875	236047.84
3.9	237638.71
3.9125	239175.39
3.925	240646.92
3.9375	242043.1
3.95	243354.93
3.9625	244574.84
3.975	245696.97
3.9875	246717.45
4	247634.45
4.0125	248776.68
4.025	249769.38
4.0375	250667.74
4.05	251485.32
4.0625	252238.22
4.075	252944.9
4.0875	253625.8
4.1	254302.76
4.1125	254998.75
4.125	255737.07
4.1375	256540.93
4.15	257432.81
4.1625	258433.65
4.175	259562.51
4.1875	260835.67
4.2	262266.29
4.2125	263863.87
4.225	265633.56
4.2375	267576.28
4.25	269687.91
4.2625	272000.85
4.275	274867.23
4.2875	277882.52
4.3	281033.79
4.3125	284303.62
4.325	287671.23
4.3375	291112.51
4.35	294600.06
4.3625	298104.6
4.375	301594.48
4.3875	305037.23
4.4	308399.76
4.4125	311648.62
4.425	314751.55
4.4375	317677.14
4.45	320396.27
4.4625	322882.28
4.475	325111.31
4.4875	327063.38
4.5	328722.18
4.5125	330652.69
4.525	332300.82
4.5375	333648.64
4.55	334701.32
4.5625	335468.08
4.575	335962.22
4.5875	336200.72
4.6	336203.82
4.6125	335994.71
4.625	335599.03
4.6375	335044.31
4.65	334359.47
4.6625	333574.34
4.675	332718.89
4.6875	331822.96
4.7	330915.4
4.7125	330023.7
4.725	329173.53
4.7375	328388.09
4.75	327687.89
4.7625	328798.73
4.775	328704.15
4.7875	328730.4
4.8	328889.22
4.8125	329188.26
4.825	329631.21
4.8375	330217.87
4.85	330944.25
4.8625	331803.04
4.875	332783.67
4.8875	333872.9
4.9	335055.1
4.9125	336312.57
4.925	337626.19
4.9375	338975.54
4.95	340339.58
4.9625	341696.92
4.975	343026
4.9875	344305.75
5	345515.51
5.0125	349290.75
5.025	350710.91
5.0375	351994.6
5.05	353131.26
5.0625	354111.89
5.075	354929.28
5.0875	355577.88
5.1	356053.57
5.1125	356353.76
5.125	356477.1
5.1375	356423.48
5.15	356193.85
5.1625	355790.16
5.175	355215.25
5.1875	354472.87
5.2	353567.53
5.2125	352504.52
5.225	351290.05
5.2375	349930.93
5.25	348434.95
5.2625	347786.62
5.275	346590.61
5.2875	345284.59
5.3	343884.59
5.3125	342407.15
5.325	340868.78
5.3375	339285.89
5.35	337674.73
5.3625	336050.73
5.375	334428.76
5.3875	332822.42
5.4	331243.96
5.4125	329704.26
5.425	328212.21
5.4375	326774.95
5.45	325397.36
5.4625	324082.15
5.475	322829.94
5.4875	321638.95
5.5	320505.44
5.5125	320426.21
5.525	319562.65
5.5375	318733.13
5.55	317936.45
5.5625	317170.35
5.575	316431.47
5.5875	315715.69
5.6	315018.51
5.6125	314335.03
5.625	313660.43
5.6375	312990.01
5.65	312319.39
5.6625	311644.73
5.675	310962.67
5.6875	310270.57
5.7	309566.29
5.7125	308848.25
5.725	308115.48
5.7375	307367.23
5.75	306603.15
5.7625	308273.18
5.775	307705.66
5.7875	307120.34
5.8	306524.25
5.8125	305923.69
5.825	305323.82
5.8375	304728.63
5.85	304140.87
5.8625	303561.86
5.875	302991.71
5.8875	302429.19
5.9	301871.96
5.9125	301316.78
5.925	300759.54
5.9375	300195.63
5.95	299620.03
5.9625	299027.56
5.975	298413.13
5.9875	297771.73
6	297098.75
6.0125	292354.74
6.025	291940
6.0375	291506.29
6.05	291055.41
6.0625	290589.07
6.075	290108.73
6.0875	289615.46
6.1	289109.9
6.1125	288592.01
6.125	288061.05
6.1375	287515.42
6.15	286952.62
6.1625	286369.28
6.175	285761.04
6.1875	285122.85
6.2	284448.84
6.2125	283732.61
6.225	282967.56
6.2375	282146.87
6.25	281264.08
6.2625	284900.62
6.275	284052.22
6.2875	283142.83
6.3	282176.48
6.3125	281158.44
6.325	280095.07
6.3375	278993.85
6.35	277863.65
6.3625	276714.21
6.375	275556.41
6.3875	274401.76
6.4	273262.26
6.4125	272150.24
6.425	271077.72
6.4375	270056.35
6.45	269096.76
6.4625	268208.28
6.475	267398.64
6.4875	266673.44
6.5	266036.02
6.5125	263188.5
6.525	263075.01
6.5375	263050.31
6.55	263111.58
6.5625	263252.7
6.575	263464.33
6.5875	263734.14
6.6	264047.07
6.6125	264385.78
6.625	264731.09
6.6375	265062.51
6.65	265358.81
6.6625	265598.57
6.675	265760.86
6.6875	265825.7
6.7	265774.68
6.7125	265591.37
6.725	265261.79
6.7375	264774.67
6.75	264121.77
6.7625	260973.71
6.775	260242.42
6.7875	259354.97
6.8	258319.68
6.8125	257147.41
6.825	255851
6.8375	254444.88
6.85	252944.92
6.8625	251367.48
6.875	249729.5
6.8875	248047.55
6.9	246337.64
6.9125	244615.01
6.925	242893.34
6.9375	241185.02
6.95	239500.47
6.9625	237848.21
6.975	236235
6.9875	234665.39
7	233142.26
7.0125	233594.52
7.025	232336.2
7.0375	231126.91
7.05	229968.77
7.0625	228862.9
7.075	227809.34
7.0875	226807.34
7.1	225855.66
7.1125	224952.49
7.125	224095.86
7.1375	223283.51
7.15	222513.07
7.1625	221782.22
7.175	221088.46
7.1875	220429.33
7.2	219802.18
7.2125	219204.18
7.225	218632.3
7.2375	218083.1
7.25	217552.77
7.2625	218035.81
7.275	217863.69
7.2875	217695.05
7.3	217525.79
7.3125	217351.18
7.325	217165.84
7.3375	216963.89
7.35	216739.07
7.3625	216484.87
7.375	216194.75
7.3875	215862.29
7.4	215481.38
7.4125	215046.5
7.425	214552.81
7.4375	213996.39
7.45	213374.35
7.4625	212684.91
7.475	211927.62
7.4875	211103.19
7.5	210213.72
7.5125	206853.96
7.525	206231
7.5375	205558.08
7.55	204841.76
7.5625	204089.39
7.575	203308.75
7.5875	202507.89
7.6	201695.04
7.6125	200878.13
7.625	200064.8
7.6375	199262
7.65	198475.83
7.6625	197711.49
7.675	196972.9
7.6875	196262.85
7.7	195582.69
7.7125	194932.43
7.725	194310.8
7.7375	193715.15
7.75	193141.77
7.7625	193703.61
7.775	193327.14
7.7875	192971.1
7.8	192632.09
7.8125	192306.23
7.825	191989.29
7.8375	191676.92
7.85	191364.87
7.8625	191049.06
7.875	190725.87
7.8875	190392.2
7.9	190045.54
7.9125	189684.17
7.925	189307.03
7.9375	188913.88
7.95	188505.14
7.9625	188081.84
7.975	187645.62
7.9875	187198.43
8	186742.53
8.0125	185985.82
8.025	185579.98
8.0375	185176.64
8.05	184781.96
8.0625	184401.43
8.075	184039.7
8.0875	183700.51
8.1	183386.47
8.1125	183099.08
8.125	182838.58
8.1375	182603.99
8.15	182393.12
8.1625	182202.64
8.175	182028.24
8.1875	181864.63
8.2	181705.79
8.2125	181545.13
8.225	181375.65
8.2375	181190.19
8.25	180981.59
8.2625	182922.43
8.275	182813.52
8.2875	182659.89
8.3	182459.47
8.3125	182210.96
8.325	181913.91
8.3375	181568.78
8.35	181176.86
8.3625	180740.42
8.375	180262.46
8.3875	179746.7
8.4	179197.52
8.4125	178619.75
8.425	178018.73
8.4375	177399.85
8.45	176768.64
8.4625	176130.53
8.475	175490.64
8.4875	174853.86
8.5	174224.38
8.5125	174437.9
8.525	174069.11
8.5375	173708.83
8.55	173360.62
8.5625	173027.07
8.575	172709.94
8.5875	172410.01
8.6	172127.2
8.6125	171860.59
8.625	171608.37
8.6375	171368.02
8.65	171136.33
8.6625	170909.55
8.675	170683.45
8.6875	170453.44
8.7	170214.73
8.7125	169962.39
8.725	169691.5
8.7375	169397.35
8.75	169075.43
8.7625	169180.19
8.775	169143.72
8.7875	169064.65
8.8	168941.32
8.8125	168772.85
8.825	168559.2
8.8375	168301.24
8.85	168000.68
8.8625	167660.23
8.875	167283.39
8.8875	166874.51
8.9	166438.72
8.9125	165981.78
8.925	165510.13
8.9375	165030.55
8.95	164550.16
8.9625	164076.24
8.975	163616.02
8.9875	163176.64
9	162764.81
9.0125	162430.27
9.025	162275.85
9.0375	162176.36
9.05	162138.32
9.0625	162167.27
9.075	162267.68
9.0875	162442.88
9.1	162695
9.1125	163024.83
9.125	163431.96
9.1375	163914.67
9.15	164470.02
9.1625	165093.9
9.175	165780.95
9.1875	166524.93
9.2	167318.62
9.2125	168154
9.225	169022.47
9.2375	169914.68
9.25	170821.1
9.2625	172107.51
9.275	173229.95
9.2875	174353.57
9.3	175471.78
9.3125	176578.34
9.325	177667.05
9.3375	178731.91
9.35	179767.24
9.3625	180767.41
9.375	181727.37
9.3875	182642.31
9.4	183507.84
9.4125	184320.02
9.425	185075.17
9.4375	185770.28
9.45	186402.77
9.4625	186970.58
9.475	187472.22
9.4875	187906.7
9.5	188273.72
9.5125	188399.89
9.525	188982.75
9.5375	189500.68
9.55	189956.95
9.5625	190355.53
9.575	190700.93
9.5875	190998.17
9.6	191252.77
9.6125	191470.61
9.625	191657.93
9.6375	191821.14
9.65	191966.71
9.6625	192101.03
9.675	192230.22
9.6875	192360.01
9.7	192495.56
9.7125	192641.27
9.725	192800.7
9.7375	192976.37
9.75	193169.74
9.7625	196091.45
9.775	196756.78
9.7875	197435.41
9.8	198124.76
9.8125	198821.5
9.825	199521.54
9.8375	200220.21
9.85	200912.48
9.8625	201592.93
9.875	202256.29
9.8875	202897.35
9.9	203511.25
9.9125	204093.66
9.925	204640.73
9.9375	205149.52
9.95	205617.81
9.9625	206044.26
9.975	206428.44
9.9875	206770.6
10	207071.88
